{
    "extends": [
      "config:base"
    ],
    "prConcurrentLimit": 0,
    "rebaseWhen": "auto",
    "masterIssue": true,
    "pip_requirements": {
      "fileMatch": [
        "requirements.txt",
        "requirements-test.txt"
      ]
    },
    "packageRules": [
      {
        "matchUpdateTypes": [
          "minor",
          "patch",
          "pin",
          "digest"],
        "matchCurrentVersion": "!/^0/",
        "automerge": true,
        "automergeType": "pr",
        "platformAutomerge": true
      }
    ]
}